…
  tidyr::pivot_wider(names_from = matrix.name, values_from = matrix)
psut_mats %>%
  chop_Y(p_industries = p_industries, fd_sectors = fd_sectors)
#> # A tibble: 4 × 13
#>   Country  Year EnergyType LastStage R             U        U_EIOU   U_feed  
#>   <chr>   <dbl> <chr>      <chr>     <list>        <list>   <list>   <list>  
#> 1 GBR      2000 E          Final     <dbl [2 × 2]> <dbl[…]> <dbl[…]> <dbl[…]>
#> 2 GBR      2000 E          Services  <dbl [2 × 2]> <dbl[…]> <dbl[…]> <dbl[…]>
#> 3 GBR      2000 E          Useful    <dbl [2 × 2]> <dbl[…]> <dbl[…]> <dbl[…]>
#> 4 GBR      2000 X          Services  <dbl [2 × 2]> <dbl[…]> <dbl[…]> <dbl[…]>
#> # ℹ 5 more variables: V <list>, Y <list>, r_EIOU <list>, S_units <list>,
#> #   ChoppedECCs <list>
psut_mats %>%
  chop_Y(p_industries = p_industries, fd_sectors = fd_sectors, unnest = TRUE)
#> # A tibble: 24 × 24
#>    Country  Year EnergyType LastStage R             U        U_EIOU   U_feed  
#>    <chr>   <dbl> <chr>      <chr>     <list>        <list>   <list>   <list>  
#>  1 GBR      2000 E          Final     <dbl [2 × 2]> <dbl[…]> <dbl[…]> <dbl[…]>
#>  2 GBR      2000 E          Final     <dbl [2 × 2]> <dbl[…]> <dbl[…]> <dbl[…]>
#>  3 GBR      2000 E          Final     <dbl [2 × 2]> <dbl[…]> <dbl[…]> <dbl[…]>
#>  4 GBR      2000 E          Final     <dbl [2 × 2]> <dbl[…]> <dbl[…]> <dbl[…]>
#>  5 GBR      2000 E          Final     <dbl [2 × 2]> <dbl[…]> <dbl[…]> <dbl[…]>
#>  6 GBR      2000 E          Final     <dbl [2 × 2]> <dbl[…]> <dbl[…]> <dbl[…]>
#>  7 GBR      2000 E          Services  <dbl [2 × 2]> <dbl[…]> <dbl[…]> <dbl[…]>
#>  8 GBR      2000 E          Services  <dbl [2 × 2]> <dbl[…]> <dbl[…]> <dbl[…]>
#>  9 GBR      2000 E          Services  <dbl [2 × 2]> <dbl[…]> <dbl[…]> <dbl[…]>
#> 10 GBR      2000 E          Services  <dbl [2 × 2]> <dbl[…]> <dbl[…]> <dbl[…]>
#> # ℹ 14 more rows
#> # ℹ 16 more variables: V <list>, Y <list>, r_EIOU <list>, S_units <list>,
#> #   ProductIndustrySector <chr>, R_prime <named list>, U_prime <named list>,
#> #   U_feed_prime <named list>, U_EIOU_prime <named list>,
#> #   r_EIOU_prime <named list>, V_prime <named list>, Y_prime <named list>,
#> #   S_units_prime <named list>, EXp <dbl>, EXfdgross <dbl>, EXfdnet <dbl>
…
