Make a Sankey diagram — make_sankey • Recca
…
                             "Crude",                "black",
                             "Crude [from Dist.]",   "black",
                             "Crude [from Fields]",  "black",
                             "Diesel",               "brown",
                             "Diesel [from Dist.]",  "brown",
                             "Diesel [from Fields]", "brown",
                             "Elect",                "yellow",
                             "Elect [from Grid]",    "yellow",
                             "NG",                   "lightblue",
                             "NG [from Dist.]",      "lightblue",
                             "NG [from Wells]",      "lightblue",
                             "Petrol",               "orange",
                             "Petrol [from Dist.]",  "orange")
colour_df
#> # A tibble: 27 × 2
#>    name                 colour
#>    <chr>                <chr> 
#>  1 Resources [of Crude] gray  
#>  2 Crude dist.          gray  
#>  3 Oil fields           gray  
#>  4 Oil refineries       gray  
#>  5 Diesel dist.         gray  
#>  6 Power plants         gray  
#>  7 Elect. grid          gray  
#>  8 Resources [of NG]    gray  
#>  9 NG dist.             gray  
#> 10 Gas wells & proc.    gray  
#> # ℹ 17 more rows
…
